// Jest Snapshot v1, https://goo.gl/fbAQLP

exports[`StartMeeting renders 1`] = `
<form
  className="container"
  onSubmit={[Function]}
>
  <input
    placeholder="t(StartMeeting.meeting-name-placeholder)"
    type="text"
  />
  <button
    type="submit"
  >
    t(StartMeeting.button-label)
  </button>
</form>
`;

exports[`StartMeeting renders nothing when there is a meeting 1`] = `null`;
